Foundation Year R Programming - What is R?
…
Base R and packages

For all the Swifties out there, install the package taylor for a dataset of various data for all of Taylor Swift’s songs

# install.packages("taylor") # only needs to be run once
library(taylor) # packages need to be loaded with library()

Warning: package 'taylor' was built under R version 4.3.1

                 # every time you start a new R session
                 # think: installing a bulb vs turning a light on

taylor_all_songs # return data frame of information about Taylor Swift's songs

# A tibble: 325 × 29
   album_name   ep    album_release track_number track_name     artist featuring
   <chr>        <lgl> <date>               <int> <chr>          <chr>  <chr>    
 1 Taylor Swift FALSE 2006-10-24               1 Tim McGraw     Taylo… <NA>     
 2 Taylor Swift FALSE 2006-10-24               2 Picture To Bu… Taylo… <NA>     
 3 Taylor Swift FALSE 2006-10-24               3 Teardrops On … Taylo… <NA>     
 4 Taylor Swift FALSE 2006-10-24               4 A Place In Th… Taylo… <NA>     
 5 Taylor Swift FALSE 2006-10-24               5 Cold As You    Taylo… <NA>     
 6 Taylor Swift FALSE 2006-10-24               6 The Outside    Taylo… <NA>     
 7 Taylor Swift FALSE 2006-10-24               7 Tied Together… Taylo… <NA>     
 8 Taylor Swift FALSE 2006-10-24               8 Stay Beautiful Taylo… <NA>     
 9 Taylor Swift FALSE 2006-10-24               9 Should've Sai… Taylo… <NA>     
10 Taylor Swift FALSE 2006-10-24              10 Mary's Song (… Taylo… <NA>     
# ℹ 315 more rows
# ℹ 22 more variables: bonus_track <lgl>, promotional_release <date>,
#   single_release <date>, track_release <date>, danceability <dbl>,
#   energy <dbl>, key <int>, loudness <dbl>, mode <int>, speechiness <dbl>,
#   acousticness <dbl>, instrumentalness <dbl>, liveness <dbl>, valence <dbl>,
#   tempo <dbl>, time_signature <int>, duration_ms <int>, explicit <lgl>,
#   key_name <chr>, mode_name <chr>, key_mode <chr>, lyrics <list>
…
